
# Smallest n-digit Carmichael numbers.
# https://oeis.org/A048123

# Terms beyond a(20) are only upper-bounds.

3 561
4 1105
5 10585
6 101101
7 1024651
8 10024561
9 100427041
10 1001152801
11 10017089857
12 100023777217
13 1000151515441
14 10000879761601
15 100000782192961
16 1000040508690301
17 10000596839335921
18 100001371359120001
19 1000004296444433281
20 10000011591390633121
21 100008689992164316441
22 1000077652722260574001
23 10000042117805449478161
24 100000085888007806729761
25 1000008902384746265713681
26 10000135494270029717333281
27 100000008259640846862397201
28 1000007841335822572897324801
29 10000037631841311721877028001
30 100000043538131812739078323801
31 1000010884920725458847399810401
32 10000169130231943281991886819329
33 100001827566781422984929609000641
34 1000019895924564234760716072147601
35 10000085424558268496859379895406721
36 100001049847452605557826491809160801
37 1000030563931633227443392506783838081
38 10000609513075548743333210138474245801
39 100000346879712641755986679803845572081
40 1000020769531780982449727613211517537701
41 10000267122883183909017839780685623379001
42 100000524124167923257354295157580120521361
43 1000068212805370825377935365753849369212961
44 10000115105425719857232342702172753223400481
45 100001082959213802164823499085528367254340481
46 1000019813857501873327618555208591239960689121
47 10001493024020501524425294261846877755911021041
48 100009213329875692005595520436340055127109399201
49 1000143865536033673569069294993127740150903447361
50 10002348104681218822537405771387982702377144350721
51 100031570551614232345577187793888332079535477744641
52 1000981397544688851393727147758614281043178102450001
53 10014706074178919638119959225991410363863603192800001
54 100038666793886180928581643000682369439425344389826001
55 1000244991707436726728478950889157494889964322735477505
56 10003032584814322289549599255707055420793440458313836001
57 100124674338511845287839986361396777808783476103354508721
58 1000362556196964630401154582333846317066198961794067663361
59 10001926610462387499790949754779977006362206826742701585121
60 100015264356253991804837714354925089886003898612471501897921
61 1001386468553728887531238112459538012576359742610216931356801
62 10003101693208883759116454013267033534324140433707704511492641
63 100016329519520322145383345341452359555004320661650048628162081
64 1000201279526258390766061710678035067161631089475873413130307681
65 10025013611716806845591368967329317400391815041229721358341854945
66 100188321306957922941571979186266891543318489702675875383731654801
67 1000555326826172628260867548987033272717599462427858867445786887169
68 10002593015187912041472080754027673994003874336410170356977210898241
69 100027654331201961805460606322421625153579451269236818925370744133601
70 1000476333585727276458725905932010515361006993090408515564046629217921
71 10007160845406836506598892481711548253522760737539060846864463485507841
72 100012714055909534083305529217474149445442718321681485369821944421661601
73 1006187671289865103758030657901315957856709203099781574515013714297390801
74 10000717114754218323065554577150353582777973913564775044407371065919332001
75 100138663449453372070490935436718579669877659725802926036975541168797671441
76 1001779402963745939456437631390014875435726939643802682839931636326029998529
77 10003404492681486795090365829829801651951408998348899719354671197637262145665
78 100105227885828728237928400080353703618254743278026386722397152212041937812081
79 1002584409774557470003459764081592627519336885242260482809536629158472926081601
80 10001369963820968840936952038270027242321967261873181684181380216600029616781921
81 100213880144407160092472979658444716638126272123449555042254857934257931554513921
82 1005071162850635432665249662022150399511016239030646441359898509076662490286438561
83 10019534004130114097810096977070473952556690342915445640441475243971911229243394241
84 100665434398460815153498398771564948712094843151439139863301042346770503960201380001
85 1003594722204230691040693556927533266158540235508771296996603817042793018749551763201
86 10035412981752783008467161461766178506305427297445004566493937644861558628258431478001
87 100835827914830104737308846807078583207094927434152968788992392752598332535693445418001
88 1001393406420368387733372544203214842309497352859889145096301664607834697906608541599361
89 10020774466131906720170497346620648449329529401523448642810717520887469813155504203665281
90 100054712060554686948888870249891897600448601527843826594877226332038618269493050705691041
91 1000124645530032309311469830481316663612550880551086696800368926181171861454870138989604241
92 10015324242335272736199620946484631588828589519885760051675463624746447028738242595415936001
93 100767360117792363775819776076462458838244561814649629543842281085444528042027157669591199681
94 1007898187075051138471375786491479101915829761089635529068249037551901669536144275857854809921
95 10023528307759188783331565154758607616146820268565094507055593631981466383226732968730507387001
96 100837394372353854584701645170081938451350138701099733687845949917214723067865548524332842958849
97 1003345554549250503570334132014012882074610155970687182396051931208260915956324262486944733305281
98 10069147641688329912407803826694842496079530036447921480942409803366499617418254222732021119292673
99 100089787037411425367313229148280031930738706117803764582300058305927483818417731254644337538490881
100 1003126674171179588676615051173072201375222441867480116631612399307481627325223048832152580239173761
